<svg width="28" height="29" viewBox="0 0 28 29" fill="none" xmlns="http://www.w3.org/2000/svg">
<path fill-rule="evenodd" clip-rule="evenodd" d="M28 14.5845C28 6.85322 21.7313 0.584473 14 0.584473C6.26875 0.584473 0 6.85322 0 14.5845C0 21.572 5.11875 27.3638 11.8125 28.4151V18.6326H8.25688V14.5845H11.8125V11.5001C11.8125 7.99197 13.9031 6.0526 17.1006 6.0526C18.6325 6.0526 20.235 6.32635 20.235 6.32635V9.77197H18.4688C16.7306 9.77197 16.1869 10.8507 16.1869 11.9595V14.5845H20.0694L19.4494 18.6326H16.1875V28.4163C22.8813 27.3657 28 21.5738 28 14.5845Z" fill="#FFC31D"/>
</svg>
